<?xml version="1.0" encoding="UTF-8"?>
<!-- Generator: Adobe Illustrator 23.1.0, SVG Export Plug-In . SVG Version: 6.00 Build 0)  -->
<svg version="1.1" id="Layer_1" xmlns="http://www.w3.org/2000/svg" xmlns:xlink="http://www.w3.org/1999/xlink" x="0px" y="0px" viewBox="0 0 128 128" style="enable-background:new 0 0 128 128;" xml:space="preserve">
<style type="text/css">
	.st0{fill:#C7C7C7;}
</style>
<path class="st0" d="M74.76,102.42l0.15,0.16c3.45,3.55,8.27,5.75,13.61,5.75c7.92,0,14.71-4.85,17.56-11.74  c2.32-5.61,2.5-14.97-6.21-14.97c-4.26,0-7.72,3.45-7.72,7.72c0,4.26,3.45,7.71,7.72,7.71c1.64,0,3.16-0.51,4.41-1.39  c-2.14,5.34-6.91,9.33-12.71,10.39c-6.14-3.05-10.36-9.39-10.36-16.71c0-10.3,8.35-18.66,18.66-18.66c1.74,0,3.43,0.24,5.03,0.69  c-0.64-5.93-0.94-11.97-0.88-18.08c0.03-2.38,0.1-4.74,0.24-7.09c-1.41,0.9-2.7,1.87-3.77,2.96c-2.32,2.35-3.89,5.16-3.89,9.57  c0,3.93,1.65,7.47,4.29,9.98c-0.34-0.02-0.68-0.03-1.03-0.03c-3.88,0-7.5,1.07-10.6,2.92c-2.3-3.75-3.62-8.16-3.62-12.88  c0-8.64,3.22-14.09,7.87-18.4c7.61-7.05,15.82-11.17,24.63-16.93c-0.61,2.68-1.15,5.38-1.61,8.11h0.01  c-1.27,7.61-1.95,15.42-1.95,23.39c0,6.68,0.47,13.25,1.38,19.68c1.33,9.49,3.84,13.18,1.68,21.97  c-3.22,13.1-15.05,22.82-29.14,22.82c-3.58,0-7.01-0.63-10.2-1.78C76.38,123.62,70.7,128,64,128c-6.7,0-12.37-4.38-14.32-10.43  c-3.19,1.15-6.62,1.78-10.2,1.78c-14.24,0-26.17-9.93-29.24-23.24c-1.95-8.43,0.34-11.73,1.66-20.75  c0.98-6.68,1.49-13.52,1.49-20.47c0-7.97-0.67-15.78-1.95-23.39h0.01c-0.46-2.73-0.99-5.43-1.61-8.11  c8.81,5.76,17.01,9.87,24.63,16.93c4.65,4.3,7.87,9.76,7.87,18.4c0,4.72-1.32,9.13-3.62,12.88c-3.1-1.85-6.72-2.92-10.6-2.92  c-0.35,0-0.69,0.01-1.03,0.03c2.64-2.51,4.29-6.05,4.29-9.98c0-4.41-1.58-7.22-3.89-9.57c-1.07-1.08-2.36-2.05-3.77-2.96  c0.13,2.35,0.21,4.71,0.24,7.09c0.07,6.11-0.24,12.15-0.88,18.08c1.6-0.45,3.29-0.69,5.04-0.69c10.3,0,18.65,8.35,18.65,18.66  c0,7.32-4.22,13.66-10.36,16.71C30.62,105,25.85,101,23.71,95.66c1.25,0.87,2.77,1.39,4.42,1.39c4.26,0,7.71-3.45,7.71-7.71  c0-4.26-3.45-7.72-7.71-7.72c-7.89,0-8.5,7.94-6.76,13.44c2.43,7.69,9.62,13.27,18.11,13.27c5.34,0,10.16-2.2,13.62-5.75l0.15-0.16  c5.82-6.12,5.27-12.2,5.27-19.54V60.31c-5.6-2.19-9.57-7.64-9.57-14.02c0-0.88,0.08-1.74,0.22-2.58c-3.89-0.74-7.6-2.62-10.62-5.64  c-6.05-6.05-7.53-14.93-4.44-22.37c5.57-2.32,11.96-2.07,17.36,0.75C52.38,9,57.29,2.77,64,0c6.71,2.77,11.63,9,12.53,16.47  c5.4-2.82,11.78-3.07,17.36-0.75c3.09,7.44,1.61,16.32-4.44,22.37c-3.01,3.01-6.73,4.89-10.62,5.64c0.14,0.84,0.22,1.69,0.22,2.57  c0,6.38-3.96,11.82-9.56,14.02v22.16C69.49,89.93,68.86,96.22,74.76,102.42 M64,42.16c-2.28,0-4.12,1.85-4.12,4.13  c0,2.28,1.85,4.12,4.12,4.12c2.28,0,4.13-1.85,4.13-4.12C68.13,44.01,66.28,42.16,64,42.16 M41.44,23.03  c-0.15,3.16,0.98,6.36,3.39,8.77c2.11,2.11,4.82,3.24,7.58,3.39c-1.34,1.4-2.43,3.05-3.2,4.86c-0.22,0.51,0.02,1.09,0.53,1.31  c0.51,0.21,1.09-0.03,1.31-0.53c1.08-2.56,2.9-4.73,5.2-6.25c2.22-1.47,4.89-2.33,7.75-2.33c2.87,0,5.54,0.86,7.76,2.33  c2.29,1.52,4.11,3.7,5.2,6.25c0.21,0.51,0.8,0.75,1.31,0.53c0.51-0.21,0.75-0.8,0.53-1.31c-0.76-1.81-1.85-3.46-3.19-4.86  c2.76-0.15,5.47-1.28,7.58-3.39c2.41-2.41,3.54-5.62,3.39-8.77c-3.16-0.15-6.36,0.98-8.77,3.39c-2.13,2.12-3.25,4.86-3.39,7.64  c-0.49-0.42-1.01-0.81-1.55-1.17c-0.86-0.57-1.78-1.06-2.74-1.46l4.4-9.12c0.24-0.5,0.03-1.1-0.47-1.34  c-0.5-0.24-1.09-0.03-1.34,0.47l-4.51,9.35c-1.34-0.37-2.76-0.56-4.22-0.56c-1.46,0-2.87,0.19-4.21,0.56l-4.51-9.35  c-0.24-0.49-0.84-0.7-1.33-0.47c-0.5,0.24-0.7,0.84-0.47,1.34l4.4,9.12c-0.96,0.4-1.88,0.89-2.74,1.46  c-0.54,0.36-1.05,0.75-1.54,1.16c-0.14-2.78-1.27-5.52-3.39-7.64C47.8,24.01,44.59,22.88,41.44,23.03 M64,10.35  c-2.34,2.13-3.8,5.19-3.8,8.6c0,3.41,1.47,6.47,3.8,8.6c2.34-2.13,3.8-5.19,3.8-8.6C67.81,15.55,66.34,12.48,64,10.35 M67.07,110.32  L64,106.64l-3.04,3.65c-0.01,0.01-0.02,0.02-0.03,0.03c-0.6,0.7-0.97,1.62-0.97,2.63c0,2.23,1.81,4.04,4.04,4.04  c2.23,0,4.04-1.81,4.04-4.04C68.04,111.95,67.68,111.03,67.07,110.32"/>
</svg>